メインタグ,メインタグ２,サブタグ
iml,White,1
imv,White,1
ins,Ground,1
ins,PlayerOwnedTree,1
ins,Tree,1
ins,Tree,1
ins,Tree,1
ins,Tree,1
ins,Tree,1
ins,Player,1
ins,EnemySpawn,1
ins,Enemy,1
ins,Enemy,1
ins,Enemy,1
ins,Enemy,1
ins,Enemy,1
ins,Enemy,1
eor,0,1
ins,BackGroundTree,1
bgt,0,1
imi,White,10
adl,Main,1
adp,Main,1
poa,10,10
pgt,10,1
grm,0,20
cmo,Tree,1
cmo,Tree,1
cmo,Tree,1
cmo,SkyBox,1
cmo,Player,1
cmo,Enemy,1
sem,0,5
cmo,Enemy,1
sem,0,5
cmo,Enemy,1
sem,0,5
scs,0,1
cms,1.0|1.0|-3.0|,10
